labs/08-riscv-multi-buttons/tests/dump.vcd
$date
	Mon Dec  1 19:23:53 2025
$end
$version
	Icarus Verilog
$end
$timescale
	1s
$end
$scope module testbench $end
$var wire 32 ! writedata [31:0] $end
$var wire 32 " readdata [31:0] $end
$var wire 1 # memwrite $end
$var wire 32 $ addr [31:0] $end
$var reg 1 % clk $end
$var reg 1 & reset $end
$scope module cpu $end
$var wire 32 ' SrcA [31:0] $end
$var wire 32 ( WriteData [31:0] $end
$var wire 1 % clk $end
$var wire 1 & reset $end
$var wire 1 ) writeBackEn $end
$var wire 32 * writeBackData [31:0] $end
$var wire 32 + shifter_in [31:0] $end
$var wire 32 , shifter [31:0] $end
$var wire 5 - shamt [4:0] $end
$var wire 5 . rs2Id_A2 [4:0] $end
$var wire 5 / rs1Id_A1 [4:0] $end
$var wire 5 0 rdId_A3 [4:0] $end
$var wire 32 1 leftshift [31:0] $end
$var wire 1 2 isStore $end
$var wire 1 3 isSYSTEM $end
$var wire 1 4 isLoad $end
$var wire 1 5 isLUI $end
$var wire 1 6 isJALR $end
$var wire 1 7 isJAL $end
$var wire 1 8 isBranch $end
$var wire 1 9 isAUIPC $end
$var wire 1 : isALUreg $end
$var wire 1 ; isALUimm $end
$var wire 7 < funct7 [6:0] $end
$var wire 3 = funct3 [2:0] $end
$var wire 32 > aluPlus [31:0] $end
$var wire 33 ? aluMinus [32:0] $end
$var wire 32 @ Uimm [31:0] $end
$var wire 32 A SrcB [31:0] $end
$var wire 32 B Simm [31:0] $end
$var wire 32 C ReadData [31:0] $end
$var wire 32 D PCplus4 [31:0] $end
$var wire 32 E PCTarget [31:0] $end
$var wire 32 F PCNext [31:0] $end
$var wire 1 # MemWrite $end
$var wire 32 G LoadStoreAddress [31:0] $end
$var wire 1 H LTU $end
$var wire 1 I LT $end
$var wire 32 J Jimm [31:0] $end
$var wire 32 K Iimm [31:0] $end
$var wire 1 L EQ $end
$var wire 32 M Bimm [31:0] $end
$var wire 32 N Address [31:0] $end
$var parameter 32 O EXECUTE $end
$var parameter 32 P FETCH_INSTR $end
$var parameter 32 Q FETCH_REGS $end
$var parameter 32 R LOAD $end
$var parameter 32 S STORE $end
$var parameter 32 T WAIT_DATA $end
$var parameter 32 U WAIT_INSTR $end
$var reg 32 V ALUResult [31:0] $end
$var reg 32 W PC [31:0] $end
$var reg 32 X instr [31:0] $end
$var reg 32 Y rs1 [31:0] $end
$var reg 32 Z rs2 [31:0] $end
$var reg 3 [ state [2:0] $end
$var reg 1 \ takeBranch $end
$scope function flip32 $end
$var reg 32 ] x [31:0] $end
$upscope $end
$upscope $end
$scope module ram $end
$var wire 32 ^ a [31:0] $end
$var wire 1 % clk $end
$var wire 32 _ rd [31:0] $end
$var wire 32 ` wd [31:0] $end
$var wire 1 # we $end
$upscope $end
$upscope $end
$enddefinitions $end
$comment Show the parameter values. $end
$dumpall
b1 U
b101 T
b110 S
b100 R
b10 Q
b0 P
b11 O
$end
#0
$dumpvars
bx `
b10000010000000000010000010011 _
b0 ^
bx ]
x\
b0 [
bx Z
bx Y
bx X
b0 W
bx V
b0 N
bx0 M
xL
bx K
bx0 J
xI
xH
bx G
bx F
bx E
b100 D
b10000010000000000010000010011 C
bx B
bx A
bx000000000000 @
bx ?
bx >
bx =
bx <
x;
x:
x9
x8
x7
x6
x5
x4
x3
x2
bx 1
bx 0
bx /
bx .
bx -
bx ,
bx +
bx *
0)
bx (
bx '
1&
1%
b0 $
0#
b10000010000000000010000010011 "
bx !
$end
#5
0%
#10
1%
#15
0%
0&
#20
b1 [
1%
#25
0%
#30
bx0000 1
b0xxxxxxxxxxxxxxxxxxxxxxxxxxxx ]
b0xxxxxxxxxxxxxxxxxxxxxxxxxxxx ,
bx "
bx C
bx _
b100000100 A
b100 F
b100001000 E
bx $
bx N
bx ^
b100 -
0:
1;
08
06
07
09
05
04
02
03
b10000010000000000000000000000 @
b100000100 K
b100001000 B
b100001000 M
b100000100 J
b0 /
b100 .
b1000 0
b0 =
b1000 <
b10 [
b10000010000000000010000010011 X
1%
#35
0%
#40
1)
1I
b0 1
b100001000 $
b100001000 N
b100001000 ^
0\
b100000100 *
b0 ,
b100001000 G
1H
0L
b100000100 V
b0 ]
b0 +
b11 [
b100000100 >
b111111111111111111111111011111100 ?
b0 '
b0 Y
1%
#45
0%
#50
0)
b11111111110001000010001010000011 "
b11111111110001000010001010000011 C
b11111111110001000010001010000011 _
b100 $
b100 N
b100 ^
b1000 F
b0 [
b1000 D
b100001100 E
b100 W
1%
#55
0%
#60
b1 [
1%
#65
0%
#70
0I
bx "
bx C
bx _
b100000000000000000000000000000100 ?
b11111111111111111111111111101000 E
b11111111111111111111111111111100 $
b11111111111111111111111111111100 N
b11111111111111111111111111111100 ^
bx *
b11111111111111111111111111111100 >
b11111111111111111111111111111100 A
b11111111111111111111111111111100 G
b11100 -
b0 V
0;
14
b11111111110001000010000000000000 @
b11111111111111111111111111111100 K
b11111111111111111111111111100101 B
b11111111111111111111111111100100 M
b11111111111101000010011111111100 J
b1000 /
b11100 .
b101 0
b10 =
b1111111 <
b10 [
b11111111110001000010001010000011 X
1%
#75
0%
#80
b0 *
b0 "
b0 C
b0 _
b100000000 $
b100000000 N
b100000000 ^
b100000000 G
b100000100 ]
b100000100 +
b11 [
b100000000 >
b100000000000000000000000100001000 ?
b100000100 '
b100000100 Y
1%
#85
0%
#90
b1100 F
b100 [
b1100 D
b11111111111111111111111111101100 E
b1000 W
1%
#95
0%
#100
1)
b101 [
1%
#105
0%
#110
b1000010001100000011 *
0)
b1000010001100000011 "
b1000010001100000011 C
b1000010001100000011 _
b1000 $
b1000 N
b1000 ^
b0 [
1%
#115
0%
#120
b1 [
1%
#125
0%
#130
b1 *
b100000100000000000000000000000 1
b100000100 ,
0H
b1 "
b1 C
b1 _
b100000100 ?
b1110 E
b100000100 $
b100000100 N
b100000100 ^
b100000100 >
b0 A
b100000100 G
b0 -
b1000010000000000000 @
b0 K
b110 B
b110 M
b1000010000000000000 J
b0 .
b110 0
b0 <
b10 [
b1000010001100000011 X
1%
#135
0%
#140
b11 [
b0 !
b0 (
b0 `
b0 Z
1%
#145
0%
#150
b10000 F
b100 [
b10000 D
b10010 E
b1100 W
1%
#155
0%
#160
1)
b101 [
1%
#165
0%
#170
b10100110000001110110011 *
0)
b10100110000001110110011 "
b10100110000001110110011 C
b10100110000001110110011 _
b1100 $
b1100 N
b1100 ^
b0 [
1%
#175
0%
#180
b1 [
1%
#185
0%
#190
b100000100000000000000000000000 1
b100000100 ]
b100000100 ,
bx "
bx C
bx _
b100000100 *
b100000100 ?
b100000010010 E
b100001011 $
b100001011 N
b100001011 ^
b100000100 >
b0 A
b100001011 G
b100000100 V
1:
04
b10100110000000000000000 @
b101 K
b111 B
b100000000110 M
b110000100000000100 J
b110 /
b101 .
b111 0
b0 =
b10 [
b10100110000001110110011 X
1%
#195
0%
#200
1)
b1000010001100000011 "
b1000010001100000011 C
b1000010001100000011 _
b10000000000000000000000000000000 1
b1000 $
b1000 N
b1000 ^
b1 *
b1 ,
b1000 G
b1 V
b1 ]
b1 +
b11 [
b1 >
b1 ?
b1 '
b1 Y
1%
#205
0%
#210
0)
b11000000000001010110011 "
b11000000000001010110011 C
b11000000000001010110011 _
b10000 $
b10000 N
b10000 ^
b10100 F
b0 [
b10100 D
b100000010110 E
b10000 W
1%
#215
0%
#220
b1 [
1%
#225
0%
#230
b11111111110001000010001010000011 "
b11111111110001000010001010000011 C
b11111111110001000010001010000011 _
b100000010100 E
b110 $
b110 N
b110 ^
b110 G
b11000000000000000000000 @
b110 K
b101 B
b100000000100 M
b110 J
b0 /
b110 .
b101 0
b10 [
b11000000000001010110011 X
1%
#235
0%
#240
1I
1)
1H
b0 1
b1 -
b101 $
b101 N
b101 ^
0\
b1 *
b0 ,
b1 A
b101 G
0L
b1 V
b0 ]
b0 +
b11 [
b1 !
b1 (
b1 `
b1 Z
b1 >
b111111111111111111111111111111111 ?
b0 '
b0 Y
1%
#245
0%
#250
0)
b11100000000001100110011 "
b11100000000001100110011 C
b11100000000001100110011 _
b10100 $
b10100 N
b10100 ^
b11000 F
b0 [
b11000 D
b100000011000 E
b10100 W
1%
#255
0%
#260
b1 [
1%
#265
0%
#270
b11111111110001000010001010000011 "
b11111111110001000010001010000011 C
b11111111110001000010001010000011 _
b11010 E
b110 $
b110 N
b110 ^
b110 G
b11100000000000000000000 @
b111 K
b110 B
b110 M
b100000000110 J
b111 .
b110 0
b10 [
b11100000000001100110011 X
1%
#275
0%
#280
1)
b11 [
1%
#285
0%
#290
0)
b10001000000010000010011 "
b10001000000010000010011 C
b10001000000010000010011 _
b11000 $
b11000 N
b11000 ^
b11100 F
b0 [
b11100 D
b11110 E
b11000 W
1%
#295
0%
#300
b1 [
1%
#305
0%
#310
b100 *
b111111111111111111111111111111100 ?
b100 V
b1000010001100000011 "
b1000010001100000011 C
b1000010001100000011 _
b100 >
b100 A
b100000 E
b1000 $
b1000 N
b1000 ^
b100 -
b1000 G
0:
1;
b10001000000000000000000 @
b100 K
b1000 B
b1000 M
b1000000000000000100 J
b1000 /
b100 .
b1000 0
b10 [
b10001000000010000010011 X
1%
#315
0%
#320
1)
bx "
bx C
bx _
b1000000000000000000000000000 1
b100001100 $
b100001100 N
b100001100 ^
0I
b100001000 *
b10000 ,
b100001100 G
0H
b100001000 V
b10000 ]
b100000100 +
b11 [
bx !
bx (
bx `
bx Z
b100001000 >
b100000000 ?
b100000100 '
b100000100 Y
1%
#325
0%
#330
0)
b11101000010000000100011 "
b11101000010000000100011 C
b11101000010000000100011 _
b11100 $
b11100 N
b11100 ^
b100000 F
b0 [
b100000 D
b100100 E
b11100 W
1%
#335
0%
#340
b1 [
1%
#345
0%
#350
b1000000000000000000000000000000 1
b10 ]
b10 ,
b1 "
b1 C
b1 _
b11111101 ?
b11100 E
b100000100 $
b100000100 N
b100000100 ^
b1 *
b100001011 >
b111 A
b100000100 G
b111 -
b0 V
0;
12
b11101000010000000000000 @
b111 K
b0 B
b0 M
b1000010100000000110 J
b111 .
b0 0
b10 =
b10 [
b11101000010000000100011 X
1%
#355
0%
#360
bx *
bx "
bx C
bx _
b100001000 $
b100001000 N
b100001000 ^
b100001000 G
b100001000 ]
b100001000 +
b11 [
b1 !
b1 (
b1 `
b1 Z
b100001111 >
b100000001 ?
b100001000 '
b100001000 Y
1%
#365
0%
#370
b100100 F
1#
b110 [
b100100 D
b100000 E
b100000 W
1%
#375
0%
#380
b11111110110111111111000001101111 *
b100000 $
b100000 N
b100000 ^
0#
b0 [
b11111110110111111111000001101111 "
b11111110110111111111000001101111 C
b11111110110111111111000001101111 _
1%
#385
0%
#390
b1 [
1%
#395
0%
#400
b0 1
b0 ]
b100100 *
b0 ,
1H
bx "
bx C
bx _
b1100 F
b100000000000000000000000100011011 ?
b100001000 V
b11101000 $
b11101000 N
b11101000 ^
b1100 E
b11110101 >
b11111111111111111111111111101101 A
b11101000 G
0\
b1101 -
17
02
b11111110110111111111000000000000 @
b11111111111111111111111111101101 K
b11111111111111111111111111100000 B
b11111111111111111111011111100000 M
b11111111111111111111111111101100 J
b11111 /
b1101 .
b111 =
b1111111 <
b10 [
b11111110110111111111000001101111 X
1%
#405
0%
#410
bx 1
bx $
bx N
bx ^
x\
xI
bx ,
bx G
xH
xL
bx0xx0x V
bx ]
bx +
b11 [
bx !
bx (
bx `
bx Z
bx >
bx ?
bx '
bx Y
1%
#415
0%
#420
b10100110000001110110011 "
b10100110000001110110011 C
b10100110000001110110011 _
b1100 $
b1100 N
b1100 ^
b10000 *
b11111111111111111111111111111000 F
b0 [
b10000 D
b11111111111111111111111111111000 E
b1100 W
1%
#425
0%
#430
b1 [
1%
#435
0%
#440
bx 1
bx ]
bx "
bx C
bx _
bx *
b10000 F
bx ,
bx $
bx N
bx ^
bx A
b100000010010 E
bx -
bx V
1:
07
b10100110000000000000000 @
b101 K
b111 B
b100000000110 M
b110000100000000100 J
b110 /
b101 .
b111 0
b0 =
b0 <
b10 [
b10100110000001110110011 X
1%
#445
0%
#450
b0 1
0I
1\
1)
b0 ,
0H
1L
b10 *
b1000010001100000011 "
b1000010001100000011 C
b1000010001100000011 _
b0 ?
b10 V
b1 -
b1000 $
b1000 N
b1000 ^
b10 >
b1 A
b1000 G
b0 ]
b1 +
b11 [
b1 !
b1 (
b1 `
b1 Z
b1 '
b1 Y
1%
#455
0%
#460
0)
b11000000000001010110011 "
b11000000000001010110011 C
b11000000000001010110011 _
b10000 $
b10000 N
b10000 ^
b10100 F
b0 [
b10100 D
b100000010110 E
b10000 W
1%
#465
0%
#470
b1 [
1%
#475
0%
#480
b11111111110001000010001010000011 "
b11111111110001000010001010000011 C
b11111111110001000010001010000011 _
b100000010100 E
b110 $
b110 N
b110 ^
b110 G
b11000000000000000000000 @
b110 K
b101 B
b100000000100 M
b110 J
b0 /
b110 .
b101 0
b10 [
b11000000000001010110011 X
1%
#485
0%
#490
1)
b101 $
b101 N
b101 ^
1I
0\
b1 *
b101 G
1H
0L
b1 V
b0 +
b11 [
b1 >
b111111111111111111111111111111111 ?
b0 '
b0 Y
1%
#495
0%
#500
0)
b11100000000001100110011 "
b11100000000001100110011 C
b11100000000001100110011 _
b10100 $
b10100 N
b10100 ^
b11000 F
b0 [
b11000 D
b100000011000 E
b10100 W
1%
#505
0%
#510
b1 [
1%
#515
0%
#520
b11111111110001000010001010000011 "
b11111111110001000010001010000011 C
b11111111110001000010001010000011 _
b11010 E
b110 $
b110 N
b110 ^
b110 G
b11100000000000000000000 @
b111 K
b110 B
b110 M
b100000000110 J
b111 .
b110 0
b10 [
b11100000000001100110011 X
1%
#525
0%
#530
1)
b10 *
b111111111111111111111111111111110 ?
b10 V
b10 -
b10 >
b10 A
b11 [
b10 !
b10 (
b10 `
b10 Z
1%
#535
0%
#540
0)
b10001000000010000010011 "
b10001000000010000010011 C
b10001000000010000010011 _
b11000 $
b11000 N
b11000 ^
b11100 F
b0 [
b11100 D
b11110 E
b11000 W
1%
#545
0%
#550
b1 [
1%
#555
0%
#560
b100 *
b111111111111111111111111111111100 ?
b100 V
b1000010001100000011 "
b1000010001100000011 C
b1000010001100000011 _
b100 >
b100 A
b100000 E
b1000 $
b1000 N
b1000 ^
b100 -
b1000 G
0:
1;
b10001000000000000000000 @
b100 K
b1000 B
b1000 M
b1000000000000000100 J
b1000 /
b100 .
b1000 0
b10 [
b10001000000010000010011 X
1%
#565
0%
#570
1)
bx "
bx C
bx _
b1000000000000000000000000000 1
b100010000 $
b100010000 N
b100010000 ^
0I
b100001100 *
b10000 ,
b100010000 G
0H
b100001100 V
b10000 ]
b100001000 +
b11 [
bx !
bx (
bx `
bx Z
b100001100 >
b100000100 ?
b100001000 '
b100001000 Y
1%
#575
0%
#580
0)
b11101000010000000100011 "
b11101000010000000100011 C
b11101000010000000100011 _
b11100 $
b11100 N
b11100 ^
b100000 F
b0 [
b100000 D
b100100 E
b11100 W
1%
#585
0%
#590
b1 [
1%
#595
0%
#600
b1000000000000000000000000000000 1
b10 ]
b10 ,
b1 "
b1 C
b1 _
b100000001 ?
b11100 E
b100001000 $
b100001000 N
b100001000 ^
b1 *
b100001111 >
b111 A
b100001000 G
b111 -
b0 V
0;
12
b11101000010000000000000 @
b111 K
b0 B
b0 M
b1000010100000000110 J
b111 .
b0 0
b10 =
b10 [
b11101000010000000100011 X
1%
#605
0%
#610
bx *
bx "
bx C
bx _
b100001100 $
b100001100 N
b100001100 ^
b100001100 G
b100001100 ]
b100001100 +
b11 [
b10 !
b10 (
b10 `
b10 Z
b100010011 >
b100000101 ?
b100001100 '
b100001100 Y
1%
#615
0%
#620
b100100 F
1#
b110 [
b100100 D
b100000 E
b100000 W
1%
#625
0%
#630
b11111110110111111111000001101111 *
b100000 $
b100000 N
b100000 ^
b11111110110111111111000001101111 "
b11111110110111111111000001101111 C
b11111110110111111111000001101111 _
0#
b0 [
1%
#635
0%
#640
b1 [
1%
#645
0%
#650
b0 1
b0 ]
b100100 *
b0 ,
1H
bx "
bx C
bx _
b1100 F
b100000000000000000000000100011111 ?
b11101100 $
b11101100 N
b11101100 ^
b1100 E
b11111001 >
b11111111111111111111111111101101 A
b11101100 G
0\
b1101 -
b100001100 V
17
02
b11111110110111111111000000000000 @
b11111111111111111111111111101101 K
b11111111111111111111111111100000 B
b11111111111111111111011111100000 M
b11111111111111111111111111101100 J
b11111 /
b1101 .
b111 =
b1111111 <
b10 [
b11111110110111111111000001101111 X
1%
#655
0%
#660
bx 1
bx $
bx N
bx ^
x\
xI
bx ,
bx G
xH
xL
bx0xx0x V
bx ]
bx +
b11 [
bx !
bx (
bx `
bx Z
bx >
bx ?
bx '
bx Y
1%
#665
0%
#670
b10100110000001110110011 "
b10100110000001110110011 C
b10100110000001110110011 _
b1100 $
b1100 N
b1100 ^
b10000 *
b11111111111111111111111111111000 F
b0 [
b10000 D
b11111111111111111111111111111000 E
b1100 W
1%
#675
0%
#680
b1 [
1%
#685
0%
#690
bx 1
bx ]
bx "
bx C
bx _
bx *
b10000 F
bx ,
bx $
bx N
bx ^
bx A
b100000010010 E
bx -
bx V
1:
07
b10100110000000000000000 @
b101 K
b111 B
b100000000110 M
b110000100000000100 J
b110 /
b101 .
b111 0
b0 =
b0 <
b10 [
b10100110000001110110011 X
1%
#695
0%
#700
b10000000000000000000000000000000 1
0I
0\
1)
b1 ,
0H
0L
b11 *
b1000010001100000011 "
b1000010001100000011 C
b1000010001100000011 _
b1 ?
b11 V
b1 -
b1001 $
b1001 N
b1001 ^
b11 >
b1 A
b1001 G
b1 ]
b10 +
b11 [
b1 !
b1 (
b1 `
b1 Z
b10 '
b10 Y
1%
#705
0%
#710
0)
b11000000000001010110011 "
b11000000000001010110011 C
b11000000000001010110011 _
b10000 $
b10000 N
b10000 ^
b10100 F
b0 [
b10100 D
b100000010110 E
b10000 W
1%
#715
0%
#720
b1 [
1%
#725
0%
#730
b11111111110001000010001010000011 "
b11111111110001000010001010000011 C
b11111111110001000010001010000011 _
b100000010100 E
b111 $
b111 N
b111 ^
b111 G
b11000000000000000000000 @
b110 K
b101 B
b100000000100 M
b110 J
b0 /
b110 .
b101 0
b10 [
b11000000000001010110011 X
1%
#735
0%
#740
1)
b0 1
b10 -
b101 $
b101 N
b101 ^
1I
b10 *
b0 ,
b10 A
b101 G
1H
b10 V
b0 ]
b0 +
b11 [
b10 !
b10 (
b10 `
b10 Z
b10 >
b111111111111111111111111111111110 ?
b0 '
b0 Y
1%
#745
0%
#750
0)
b11100000000001100110011 "
b11100000000001100110011 C
b11100000000001100110011 _
b10100 $
b10100 N
b10100 ^
b11000 F
b0 [
b11000 D
b100000011000 E
b10100 W
1%
#755
0%
#760
b1 [
1%
#765
0%
#770
b11111111110001000010001010000011 "
b11111111110001000010001010000011 C
b11111111110001000010001010000011 _
b11010 E
b110 $
b110 N
b110 ^
b110 G
b11100000000000000000000 @
b111 K
b110 B
b110 M
b100000000110 J
b111 .
b110 0
b10 [
b11100000000001100110011 X
1%
#775
0%
#780
1)
b11 *
b111111111111111111111111111111101 ?
b11 V
b11 -
b11 >
b11 A
b11 [
b11 !
b11 (
b11 `
b11 Z
1%
#785
0%
#790
0)
b10001000000010000010011 "
b10001000000010000010011 C
b10001000000010000010011 _
b11000 $
b11000 N
b11000 ^
b11100 F
b0 [
b11100 D
b11110 E
b11000 W
1%
#795
0%
#800
b1 [
1%
#805
0%
#810
b100 *
b111111111111111111111111111111100 ?
b100 V
b1000010001100000011 "
b1000010001100000011 C
b1000010001100000011 _
b100 >
b100 A
b100000 E
b1000 $
b1000 N
b1000 ^
b100 -
b1000 G
0:
1;
b10001000000000000000000 @
b100 K
b1000 B
b1000 M
b1000000000000000100 J
b1000 /
b100 .
b1000 0
b10 [
b10001000000010000010011 X
1%
#815
0%
#820
1)
bx "
bx C
bx _
b1000000000000000000000000000 1
b100010100 $
b100010100 N
b100010100 ^
0I
b100010000 *
b10000 ,
b100010100 G
0H
b100010000 V
b10000 ]
b100001100 +
b11 [
bx !
bx (
bx `
bx Z
b100010000 >
b100001000 ?
b100001100 '
b100001100 Y
1%
#825
0%
#830
0)
b11101000010000000100011 "
b11101000010000000100011 C
b11101000010000000100011 _
b11100 $
b11100 N
b11100 ^
b100000 F
b0 [
b100000 D
b100100 E
b11100 W
1%
#835
0%
#840
b1 [
1%
#845
0%
#850
b1000000000000000000000000000000 1
b10 ]
b10 ,
b10 "
b10 C
b10 _
b100000101 ?
b11100 E
b100001100 $
b100001100 N
b100001100 ^
b10 *
b100010011 >
b111 A
b100001100 G
b111 -
b0 V
0;
12
b11101000010000000000000 @
b111 K
b0 B
b0 M
b1000010100000000110 J
b111 .
b0 0
b10 =
b10 [
b11101000010000000100011 X
1%
#855
0%
#860
bx *
bx "
bx C
bx _
b100010000 $
b100010000 N
b100010000 ^
b100010000 G
b100010000 ]
b100010000 +
b11 [
b11 !
b11 (
b11 `
b11 Z
b100010111 >
b100001001 ?
b100010000 '
b100010000 Y
1%
#865
0%
#870
b100100 F
1#
b110 [
b100100 D
b100000 E
b100000 W
1%
#875
0%
#880
b11111110110111111111000001101111 *
b100000 $
b100000 N
b100000 ^
0#
b0 [
b11111110110111111111000001101111 "
b11111110110111111111000001101111 C
b11111110110111111111000001101111 _
1%
#885
0%
#890
b1 [
1%
#895
0%
#900
b0 1
b0 ]
b100100 *
b0 ,
1H
bx "
bx C
bx _
b1100 F
b100000000000000000000000100100011 ?
b100000000 V
b11110000 $
b11110000 N
b11110000 ^
b1100 E
b11111101 >
b11111111111111111111111111101101 A
b11110000 G
0\
b1101 -
17
02
b11111110110111111111000000000000 @
b11111111111111111111111111101101 K
b11111111111111111111111111100000 B
b11111111111111111111011111100000 M
b11111111111111111111111111101100 J
b11111 /
b1101 .
b111 =
b1111111 <
b10 [
b11111110110111111111000001101111 X
1%
#905
0%
#910
bx 1
bx $
bx N
bx ^
x\
xI
bx ,
bx G
xH
xL
bx0xx0x V
bx ]
bx +
b11 [
bx !
bx (
bx `
bx Z
bx >
bx ?
bx '
bx Y
1%
#915
0%
#920
b10100110000001110110011 "
b10100110000001110110011 C
b10100110000001110110011 _
b1100 $
b1100 N
b1100 ^
b10000 *
b11111111111111111111111111111000 F
b0 [
b10000 D
b11111111111111111111111111111000 E
b1100 W
1%
#925
0%
#930
b1 [
1%
#935
0%
#940
bx 1
bx ]
bx "
bx C
bx _
bx *
b10000 F
bx ,
bx $
bx N
bx ^
bx A
b100000010010 E
bx -
bx V
1:
07
b10100110000000000000000 @
b101 K
b111 B
b100000000110 M
b110000100000000100 J
b110 /
b101 .
b111 0
b0 =
b0 <
b10 [
b10100110000001110110011 X
1%
#945
0%
#950
b0 1
0I
0\
1)
b0 ,
0H
0L
b101 *
b1000010001100000011 "
b1000010001100000011 C
b1000010001100000011 _
b1 ?
b101 V
b10 -
b1010 $
b1010 N
b1010 ^
b101 >
b10 A
b1010 G
b0 ]
b11 +
b11 [
b10 !
b10 (
b10 `
b10 Z
b11 '
b11 Y
1%
#955
0%
#960
0)
b11000000000001010110011 "
b11000000000001010110011 C
b11000000000001010110011 _
b10000 $
b10000 N
b10000 ^
b10100 F
b0 [
b10100 D
b100000010110 E
b10000 W
1%
#965
0%
#970
b1 [
1%
#975
0%
#980
b1000010001100000011 "
b1000010001100000011 C
b1000010001100000011 _
b100000010100 E
b1000 $
b1000 N
b1000 ^
b1000 G
b11000000000000000000000 @
b110 K
b101 B
b100000000100 M
b110 J
b0 /
b110 .
b101 0
b10 [
b11000000000001010110011 X
1%
#985
0%
#990
1)
b11111111110001000010001010000011 "
b11111111110001000010001010000011 C
b11111111110001000010001010000011 _
b11 -
b101 $
b101 N
b101 ^
1I
b11 *
b11 A
b101 G
1H
b11 V
b0 +
b11 [
b11 !
b11 (
b11 `
b11 Z
b11 >
b111111111111111111111111111111101 ?
b0 '
b0 Y
1%
#995
0%
#1000
0)
b11100000000001100110011 "
b11100000000001100110011 C
b11100000000001100110011 _
b10100 $
b10100 N
b10100 ^
b11000 F
b0 [
b11000 D
b100000011000 E
b10100 W
1%
#1005
0%
#1010
b1 [
1%
#1015
0%
#1020
b11111111110001000010001010000011 "
b11111111110001000010001010000011 C
b11111111110001000010001010000011 _
b11010 E
b110 $
b110 N
b110 ^
b110 G
b11100000000000000000000 @
b111 K
b110 B
b110 M
b100000000110 J
b111 .
b110 0
b10 [
b11100000000001100110011 X
1%
#1025
0%
#1030
1)
b101 *
b111111111111111111111111111111011 ?
b101 V
b101 -
b101 >
b101 A
b11 [
b101 !
b101 (
b101 `
b101 Z
1%
#1035
0%
#1040
0)
b10001000000010000010011 "
b10001000000010000010011 C
b10001000000010000010011 _
b11000 $
b11000 N
b11000 ^
b11100 F
b0 [
b11100 D
b11110 E
b11000 W
1%
#1045
0%
#1050
b1 [
1%
#1055
0%
#1060
b100 *
b111111111111111111111111111111100 ?
b100 V
b1000010001100000011 "
b1000010001100000011 C
b1000010001100000011 _
b100 >
b100 A
b100000 E
b1000 $
b1000 N
b1000 ^
b100 -
b1000 G
0:
1;
b10001000000000000000000 @
b100 K
b1000 B
b1000 M
b1000000000000000100 J
b1000 /
b100 .
b1000 0
b10 [
b10001000000010000010011 X
1%
#1065
0%
#1070
1)
bx "
bx C
bx _
b10001000000000000000000000000000 1
b100011000 $
b100011000 N
b100011000 ^
0I
b100010100 *
b10001 ,
b100011000 G
0H
b100010100 V
b10001 ]
b100010000 +
b11 [
bx !
bx (
bx `
bx Z
b100010100 >
b100001100 ?
b100010000 '
b100010000 Y
1%
#1075
0%
#1080
0)
b11101000010000000100011 "
b11101000010000000100011 C
b11101000010000000100011 _
b11100 $
b11100 N
b11100 ^
b100000 F
b0 [
b100000 D
b100100 E
b11100 W
1%
#1085
0%
#1090
b1 [
1%
#1095
0%
#1100
b1000000000000000000000000000000 1
b10 ]
b10 ,
b11 "
b11 C
b11 _
b100001001 ?
b11100 E
b100010000 $
b100010000 N
b100010000 ^
b11 *
b100010111 >
b111 A
b100010000 G
b111 -
b0 V
0;
12
b11101000010000000000000 @
b111 K
b0 B
b0 M
b1000010100000000110 J
b111 .
b0 0
b10 =
b10 [
b11101000010000000100011 X
1%
#1105
0%
#1110
bx *
bx "
bx C
bx _
b100010100 $
b100010100 N
b100010100 ^
b100010100 G
b100010100 ]
b100010100 +
b11 [
b101 !
b101 (
b101 `
b101 Z
b100011011 >
b100001101 ?
b100010100 '
b100010100 Y
1%
#1115
0%
#1120
b100100 F
1#
b110 [
b100100 D
b100000 E
b100000 W
1%
#1125
0%
#1130
b11111110110111111111000001101111 *
b100000 $
b100000 N
b100000 ^
b11111110110111111111000001101111 "
b11111110110111111111000001101111 C
b11111110110111111111000001101111 _
0#
b0 [
1%
#1135
0%
#1140
b1 [
1%
#1145
0%
#1150
b0 1
b0 ]
b100100 *
b0 ,
1H
bx "
bx C
bx _
b1100 F
b100000000000000000000000100100111 ?
b11110100 $
b11110100 N
b11110100 ^
b1100 E
b100000001 >
b11111111111111111111111111101101 A
b11110100 G
0\
b1101 -
b100000100 V
17
02
b11111110110111111111000000000000 @
b11111111111111111111111111101101 K
b11111111111111111111111111100000 B
b11111111111111111111011111100000 M
b11111111111111111111111111101100 J
b11111 /
b1101 .
b111 =
b1111111 <
b10 [
b11111110110111111111000001101111 X
1%
#1155
0%
#1160
bx 1
bx $
bx N
bx ^
x\
xI
bx ,
bx G
xH
xL
bx0xx0x V
bx ]
bx +
b11 [
bx !
bx (
bx `
bx Z
bx >
bx ?
bx '
bx Y
1%
#1165
0%
#1170
b10100110000001110110011 "
b10100110000001110110011 C
b10100110000001110110011 _
b1100 $
b1100 N
b1100 ^
b10000 *
b11111111111111111111111111111000 F
b0 [
b10000 D
b11111111111111111111111111111000 E
b1100 W
1%
#1175
0%
#1180
b1 [
1%
#1185
0%
#1190
bx 1
bx ]
bx "
bx C
bx _
bx *
b10000 F
bx ,
bx $
bx N
bx ^
bx A
b100000010010 E
bx -
bx V
1:
07
b10100110000000000000000 @
b101 K
b111 B
b100000000110 M
b110000100000000100 J
b110 /
b101 .
b111 0
b0 =
b0 <
b10 [
b10100110000001110110011 X
1%
#1195
0%
#1200
b0 1
0I
0\
1)
b0 ,
0H
0L
b1000 *
b10100110000001110110011 "
b10100110000001110110011 C
b10100110000001110110011 _
b10 ?
b1000 V
b11 -
b1100 $
b1100 N
b1100 ^
b1000 >
b11 A
b1100 G
b0 ]
b101 +
b11 [
b11 !
b11 (
b11 `
b11 Z
b101 '
b101 Y
1%
#1205
0%
#1210
0)
b11000000000001010110011 "
b11000000000001010110011 C
b11000000000001010110011 _
b10000 $
b10000 N
b10000 ^
b10100 F
b0 [
b10100 D
b100000010110 E
b10000 W
1%
#1215
0%
#1220
b1 [
1%
#1225
0%
#1230
b1000010001100000011 "
b1000010001100000011 C
b1000010001100000011 _
b100000010100 E
b1010 $
b1010 N
b1010 ^
b1010 G
b11000000000000000000000 @
b110 K
b101 B
b100000000100 M
b110 J
b0 /
b110 .
b101 0
b10 [
b11000000000001010110011 X
1%
#1235
0%
#1240
1)
b11111111110001000010001010000011 "
b11111111110001000010001010000011 C
b11111111110001000010001010000011 _
b101 -
b101 $
b101 N
b101 ^
1I
b101 *
b101 A
b101 G
1H
b101 V
b0 +
b11 [
b101 !
b101 (
b101 `
b101 Z
b101 >
b111111111111111111111111111111011 ?
b0 '
b0 Y
1%
#1245
0%
#1250
0)
b11100000000001100110011 "
b11100000000001100110011 C
b11100000000001100110011 _
b10100 $
b10100 N
b10100 ^
b11000 F
b0 [
b11000 D
b100000011000 E
b10100 W
1%
#1255
0%
#1260
b1 [
1%
#1265
0%
